260622_nmy-2_RNAi
…
# set plotname
today <- format(Sys.Date(), "%y%m%d")
filename <- paste("../03_outputPlots/", today, "nmy-2_L4440.pdf", sep = "")

pdf(filename, width = 6, height = 6)
d
dev.off()

getwd()

Calculate the statistics

foldChange_calc

## # A tibble: 56 × 6
## # Groups:   date, treatment, embryoID, channel [56]
##    date   treatment embryoID channel data             fc_enrich
##    <chr>  <fct>     <chr>    <fct>   <list>               <dbl>
##  1 230713 L4440     03       ch2     <tibble [3 × 4]>      1.61
##  2 230713 L4440     04       ch2     <tibble [3 × 4]>      1.44
##  3 230713 L4440     08       ch2     <tibble [3 × 4]>      1.75
##  4 230713 L4440     10       ch2     <tibble [3 × 4]>      1.32
##  5 230713 L4440     12       ch2     <tibble [3 × 4]>      1.28
##  6 230828 L4440     05       ch2     <tibble [3 × 4]>      1.33
##  7 230828 L4440     07       ch2     <tibble [3 × 4]>      1.52
##  8 240113 nmy-2     02       ch2     <tibble [3 × 4]>      1.37
##  9 240113 nmy-2     10       ch2     <tibble [3 × 4]>      1.67
## 10 240122 L4440     01       ch2     <tibble [3 × 4]>      2.38
## # ℹ 46 more rows
…
