260622bmk1_RNAi
…
# set plotname
today <- format(Sys.Date(), "%y%m%d")
filename <- paste("../03_outputPlots/", today, "bmk-1_L4440.pdf", sep = "")

pdf(filename, width = 6, height = 6)
d
dev.off()

getwd()

Calculate the statistics

foldChange_calc

## # A tibble: 56 × 6
## # Groups:   date, treatment, embryoID, channel [56]
##    date   treatment embryoID channel data             fc_enrich
##    <chr>  <fct>     <chr>    <fct>   <list>               <dbl>
##  1 230713 L4440     03       ch2     <tibble [3 × 4]>     1.56 
##  2 230713 L4440     03       ch1     <tibble [3 × 4]>     1.12 
##  3 230713 L4440     04       ch2     <tibble [3 × 4]>     1.40 
##  4 230713 L4440     04       ch1     <tibble [3 × 4]>     1.11 
##  5 230713 L4440     08       ch2     <tibble [3 × 4]>     1.74 
##  6 230713 L4440     08       ch1     <tibble [3 × 4]>     1.18 
##  7 230713 L4440     10       ch2     <tibble [3 × 4]>     1.38 
##  8 230713 L4440     10       ch1     <tibble [3 × 4]>     1.18 
##  9 230713 L4440     12       ch2     <tibble [3 × 4]>     1.29 
## 10 230713 L4440     12       ch1     <tibble [3 × 4]>     0.999
## # ℹ 46 more rows
…
