260624_bmk-1_RNAi
…
# set plotname
today <- format(Sys.Date(), "%y%m%d")
filename <- paste("../03_outputPlots/", today, "bmk-1_L4440.pdf", sep = "")

pdf(filename, width = 6, height = 6)
d
dev.off()

getwd()

Calculate the statistics

foldChange_calc

## # A tibble: 56 × 6
## # Groups:   date, treatment, embryoID, channel [56]
##    date   treatment embryoID channel data             fc_enrich
##    <chr>  <fct>     <chr>    <fct>   <list>               <dbl>
##  1 220719 bmk-1     01       ch2     <tibble [3 × 4]>      1.19
##  2 220719 bmk-1     02       ch2     <tibble [3 × 4]>      1.31
##  3 220719 bmk-1     09       ch2     <tibble [3 × 4]>      1.47
##  4 230408 bmk-1     04       ch2     <tibble [3 × 4]>      1.17
##  5 230408 bmk-1     08       ch2     <tibble [3 × 4]>      1.29
##  6 230408 bmk-1     10       ch2     <tibble [3 × 4]>      1.21
##  7 230408 bmk-1     12       ch2     <tibble [3 × 4]>      1.31
##  8 230408 bmk-1     13       ch2     <tibble [3 × 4]>     NA   
##  9 230408 bmk-1     14       ch2     <tibble [3 × 4]>      1.17
## 10 230408 bmk-1     15       ch2     <tibble [3 × 4]>      1.30
## # ℹ 46 more rows
…
