260622bmk1_RNAi
…
# set plotname
today <- format(Sys.Date(), "%y%m%d")
filename <- paste("../03_outputPlots/", today, "bmk-1_L4440.pdf", sep = "")

pdf(filename, width = 6, height = 6)
d
dev.off()

getwd()

Calculate the statistics

foldChange_calc

## # A tibble: 56 × 6
## # Groups:   date, treatment, embryoID, channel [56]
##    date   treatment embryoID channel data             fc_enrich
##    <chr>  <fct>     <chr>    <fct>   <list>               <dbl>
##  1 230713 L4440     03       ch2     <tibble [3 × 4]>      1.40
##  2 230713 L4440     04       ch2     <tibble [3 × 4]>      1.26
##  3 230713 L4440     08       ch2     <tibble [3 × 4]>      1.54
##  4 230713 L4440     10       ch2     <tibble [3 × 4]>      1.22
##  5 230713 L4440     12       ch2     <tibble [3 × 4]>      1.08
##  6 230828 L4440     05       ch2     <tibble [3 × 4]>      1.17
##  7 230828 L4440     07       ch2     <tibble [3 × 4]>      1.24
##  8 240122 L4440     01       ch2     <tibble [3 × 4]>      1.82
##  9 240122 L4440     06       ch2     <tibble [3 × 4]>      1.46
## 10 240122 L4440     08       ch2     <tibble [3 × 4]>      1.69
## # ℹ 46 more rows
…
