260527_bmk1_RNAi
…
# set plotname
today <- format(Sys.Date(), "%y%m%d")
filename <- paste("../03_outputPlots/", today, "_set3_erm1_boxplot_nocodazole1.pdf", sep = "")

pdf(filename, width = 6, height = 6)
d
dev.off()

getwd()

Calculate the statistics

foldChange_calc

## # A tibble: 74 × 6
## # Groups:   date, treatment, embryoID, channel [74]
##    date   treatment embryoID channel data             fc_enrich
##    <chr>  <fct>     <chr>    <fct>   <list>               <dbl>
##  1 221011 control   06       ch2     <tibble [3 × 4]>      1.35
##  2 221011 control   08       ch2     <tibble [3 × 4]>      1.16
##  3 221011 control   13       ch2     <tibble [3 × 4]>      1.39
##  4 221011 control   14       ch2     <tibble [3 × 4]>      1.16
##  5 221011 control   17       ch2     <tibble [3 × 4]>      1.54
##  6 221011 control   21       ch2     <tibble [3 × 4]>      1.51
##  7 240610 control   01       ch2     <tibble [3 × 4]>     NA   
##  8 240621 control   01       ch2     <tibble [3 × 4]>      1.49
##  9 240621 control   04       ch2     <tibble [3 × 4]>      1.58
## 10 240621 control   06       ch2     <tibble [3 × 4]>      1.22
## # ℹ 64 more rows
…
