260619_KLP-9_L4440
…
foldChange_calc

## # A tibble: 46 × 6
## # Groups:   date, treatment, embryoID, channel [46]
##    date   treatment embryoID channel data             fc_enrich
##    <chr>  <fct>     <chr>    <fct>   <list>               <dbl>
##  1 230713 L4440     03       ch2     <tibble [3 × 4]>      1.63
##  2 230713 L4440     04       ch2     <tibble [3 × 4]>      1.34
##  3 230713 L4440     08       ch2     <tibble [3 × 4]>      1.75
##  4 230713 L4440     10       ch2     <tibble [3 × 4]>      1.31
##  5 230713 L4440     12       ch2     <tibble [3 × 4]>      1.26
##  6 230828 L4440     05       ch2     <tibble [3 × 4]>      1.33
##  7 230828 L4440     07       ch2     <tibble [3 × 4]>      1.58
##  8 231207 klp-9     01       ch2     <tibble [3 × 4]>     NA   
##  9 231208 klp-9     01       ch2     <tibble [3 × 4]>     NA   
## 10 231208 klp-9     03       ch2     <tibble [3 × 4]>     NA   
## # ℹ 36 more rows
…
