260722_bmk1_ABa-EMS_4-cell
…
# set plotname
today <- format(Sys.Date(), "%y%m%d")
filename <- paste("../03_outputPlots/", today, "bmk-1_L4440.pdf", sep = "")

pdf(filename, width = 6, height = 6)
d
dev.off()

getwd()

Calculate the statistics

foldChange_calc

## # A tibble: 40 × 6
## # Groups:   date, treatment, embryoID, channel [40]
##    date   treatment embryoID channel data             fc_enrich
##    <chr>  <fct>     <chr>    <fct>   <list>               <dbl>
##  1 231107 L4440     02       ch2     <tibble [3 × 4]>      1.36
##  2 231107 L4440     02       ch1     <tibble [3 × 4]>      1.07
##  3 230713 L4440     05       ch2     <tibble [3 × 4]>      1.33
##  4 230713 L4440     05       ch1     <tibble [3 × 4]>      1.15
##  5 230713 L4440     07       ch2     <tibble [3 × 4]>      1.38
##  6 230713 L4440     07       ch1     <tibble [3 × 4]>      1.10
##  7 230713 L4440     11       ch2     <tibble [3 × 4]>      1.52
##  8 230713 L4440     11       ch1     <tibble [3 × 4]>      1.28
##  9 230828 L4440     01       ch2     <tibble [3 × 4]>      1.55
## 10 230828 L4440     01       ch1     <tibble [3 × 4]>      1.14
## # ℹ 30 more rows
…
